<svg width="12" height="23" viewBox="0 0 12 23" fill="none" xmlns="http://www.w3.org/2000/svg">
<path d="M7.79563 23V12.5257H11.3496L11.8779 8.42464H7.79563V5.81244C7.79563 4.62903 8.12725 3.8188 9.83548 3.8188H12V0.162495C10.9473 0.050033 9.88818 -0.00364229 8.82905 0.000191649C5.68766 0.000191649 3.53085 1.90694 3.53085 5.40733V8.41697H0V12.518H3.53856V23H7.79563Z" fill="#F1F1F1"/>
</svg>
