<svg width="30" height="27" viewBox="0 0 30 27" fill="none" xmlns="http://www.w3.org/2000/svg">
<path d="M28.3854 6.20684C28.5781 5.54766 28.3854 5.0625 27.4583 5.0625H24.3906C23.6094 5.0625 23.25 5.4791 23.0573 5.94316C23.0573 5.94316 21.4948 9.79805 19.2865 12.2977C18.5729 13.0201 18.2448 13.2521 17.8542 13.2521C17.6615 13.2521 17.3646 13.0201 17.3646 12.3609V6.20684C17.3646 5.41582 17.1458 5.0625 16.5 5.0625H11.6771C11.1875 5.0625 10.8958 5.43164 10.8958 5.77441C10.8958 6.52324 12 6.69727 12.1146 8.80664V13.384C12.1146 14.3859 11.9375 14.5705 11.5469 14.5705C10.5052 14.5705 7.97396 10.6998 6.47396 6.27012C6.17188 5.41055 5.875 5.0625 5.08854 5.0625H2.02083C1.14583 5.0625 0.96875 5.4791 0.96875 5.94316C0.96875 6.76582 2.01042 10.8527 5.81771 16.2527C8.35417 19.9389 11.9271 21.9375 15.1771 21.9375C17.1302 21.9375 17.3698 21.4945 17.3698 20.7299C17.3698 17.2072 17.1927 16.875 18.1719 16.875C18.625 16.875 19.4063 17.107 21.2292 18.8842C23.3125 20.9936 23.6563 21.9375 24.8229 21.9375H27.8906C28.7656 21.9375 29.2083 21.4945 28.9531 20.6191C28.3698 18.7787 24.4271 14.9924 24.25 14.7393C23.7969 14.1486 23.9271 13.885 24.25 13.3576C24.2552 13.3523 28 8.01562 28.3854 6.20684Z" fill="#F1F1F1"/>
</svg>
